{
    "entity.warden.sonic_charge": {
        "sounds": [
            {
                "name": "marwynn:mob/warden/sonic_charge",
                "weight": 1
            }
        ],
        "subtitle": "subtitles.entity.warden.sonic_charge",
        "replace": true
    },
    "entity.warden.sonic_boom": {
        "sounds": [
            {
                "name": "marwynn:mob/warden/sonic_boom",
                "weight": 1
            }
        ],
        "subtitle": "subtitles.entity.warden.sonic_boom",
        "replace": true
    }
}