{
	"credit": "Made with Blockbench",
	"texture_size": [64, 64],
	"textures": {
		"0": "backpack:backpack",
		"particle": "backpack:backpack"
	},
	"elements": [
		{
			"name": "main body",
			"from": [4, 0, 5],
			"to": [12, 8, 10],
			"rotation": {"angle": 0, "axis": "y", "origin": [8, 4, 7.5]},
			"faces": {
				"north": {"uv": [0, 0, 2, 2], "texture": "#0"},
				"east": {"uv": [0, 4, 1.25, 6], "texture": "#0"},
				"south": {"uv": [0, 2, 2, 4], "texture": "#0"},
				"west": {"uv": [1.25, 4, 2.5, 6], "texture": "#0"},
				"up": {"uv": [4.5, 5.25, 2.5, 4], "texture": "#0"},
				"down": {"uv": [6.25, 0, 4.25, 1.25], "texture": "#0"}
			}
		},
		{
			"name": "side panel",
			"from": [3.75, 0.25, 5.25],
			"to": [12.25, 7.75, 9.75],
			"rotation": {"angle": 0, "axis": "y", "origin": [8, 4, 7.5]},
			"faces": {
				"north": {"uv": [2, 0, 4.125, 1.875], "texture": "#0"},
				"east": {"uv": [4.5, 5.25, 5.625, 7.125], "texture": "#0"},
				"south": {"uv": [2, 2, 4.125, 3.875], "texture": "#0"},
				"west": {"uv": [5.75, 5.25, 6.875, 7.125], "texture": "#0"},
				"up": {"uv": [6.375, 2.375, 4.25, 1.25], "texture": "#0"},
				"down": {"uv": [6.375, 2.5, 4.25, 3.625], "texture": "#0"}
			}
		},
		{
			"name": "main top",
			"from": [4.35, 8, 5.5],
			"to": [11.6, 8.25, 10],
			"rotation": {"angle": 0, "axis": "y", "origin": [8.1, 7.85, 7.35]},
			"faces": {
				"north": {"uv": [0, 7, 1.8125, 7.1875], "texture": "#0"},
				"east": {"uv": [7, 5.75, 8.3125, 5.9375], "texture": "#0"},
				"south": {"uv": [2, 7, 3.8125, 7.1875], "texture": "#0"},
				"west": {"uv": [7, 6, 8.3125, 6.1875], "texture": "#0"},
				"up": {"uv": [6.3125, 5.0625, 4.5, 3.75], "texture": "#0"},
				"down": {"uv": [4.3125, 5.25, 2.5, 6.5625], "texture": "#0"}
			}
		},
		{
			"name": "main",
			"from": [4.5, 0.25, 4.5],
			"to": [11.5, 4.25, 5],
			"rotation": {"angle": 0, "axis": "y", "origin": [8, 2.25, 4.75]},
			"faces": {
				"north": {"uv": [0, 6, 1.75, 7], "texture": "#0"},
				"east": {"uv": [3.75, 7.25, 3.875, 8.25], "texture": "#0"},
				"south": {"uv": [6.25, 0, 8, 1], "texture": "#0"},
				"west": {"uv": [6.25, 7.25, 6.375, 8.25], "texture": "#0"},
				"up": {"uv": [3, 7.375, 1.25, 7.25], "texture": "#0"},
				"down": {"uv": [6.25, 7.25, 4.5, 7.375], "texture": "#0"}
			}
		},
		{
			"name": "lid",
			"from": [4.75, 3.5, 4.25],
			"to": [11.25, 4.5, 5],
			"rotation": {"angle": 0, "axis": "y", "origin": [8, 4, 4.625]},
			"faces": {
				"north": {"uv": [6.5, 4.5, 8.125, 4.75], "texture": "#0"},
				"east": {"uv": [4.25, 3.75, 4.4375, 4], "texture": "#0"},
				"south": {"uv": [6.5, 4.75, 8.125, 5], "texture": "#0"},
				"west": {"uv": [6.25, 1, 6.4375, 1.25], "texture": "#0"},
				"up": {"uv": [8.625, 5.4375, 7, 5.25], "texture": "#0"},
				"down": {"uv": [8.625, 5.5, 7, 5.6875], "texture": "#0"}
			}
		},
		{
			"name": "button",
			"from": [7.65, 3, 4.1],
			"to": [8.4, 3.75, 4.85],
			"rotation": {"angle": 0, "axis": "y", "origin": [8.025, 3.375, 4.475]},
			"faces": {
				"north": {"uv": [3.75, 6.75, 3.9375, 6.9375], "texture": "#0"},
				"east": {"uv": [1.75, 7.75, 1.9375, 7.9375], "texture": "#0"},
				"south": {"uv": [2, 7.75, 2.1875, 7.9375], "texture": "#0"},
				"west": {"uv": [2.25, 7.75, 2.4375, 7.9375], "texture": "#0"},
				"up": {"uv": [2.6875, 7.9375, 2.5, 7.75], "texture": "#0"},
				"down": {"uv": [2.9375, 7.75, 2.75, 7.9375], "texture": "#0"}
			}
		},
		{
			"name": "main",
			"from": [12.25, 0.75, 5.75],
			"to": [12.75, 2.75, 9.25],
			"rotation": {"angle": 0, "axis": "y", "origin": [12.5, 1.75, 7.5]},
			"faces": {
				"north": {"uv": [7.5, 3, 7.625, 3.5], "texture": "#0"},
				"east": {"uv": [6.5, 2.5, 7.375, 3], "texture": "#0"},
				"south": {"uv": [7.5, 3.5, 7.625, 4], "texture": "#0"},
				"west": {"uv": [6.5, 3, 7.375, 3.5], "texture": "#0"},
				"up": {"uv": [6.625, 8.125, 6.5, 7.25], "texture": "#0"},
				"down": {"uv": [6.875, 7.25, 6.75, 8.125], "texture": "#0"}
			}
		},
		{
			"name": "lid",
			"from": [12.125, 2.45, 5.975],
			"to": [12.875, 2.85, 8.975],
			"rotation": {"angle": 0, "axis": "y", "origin": [12.5, 2.65, 7.475]},
			"faces": {
				"north": {"uv": [7.75, 3, 7.9375, 3.125], "texture": "#0"},
				"east": {"uv": [1.5, 7.5, 2.25, 7.625], "texture": "#0"},
				"south": {"uv": [7.75, 3.25, 7.9375, 3.375], "texture": "#0"},
				"west": {"uv": [2.25, 7.5, 3, 7.625], "texture": "#0"},
				"up": {"uv": [2.4375, 6.75, 2.25, 6], "texture": "#0"},
				"down": {"uv": [3.1875, 7.25, 3, 8], "texture": "#0"}
			}
		},
		{
			"name": "button",
			"from": [12.5, 2, 7.25],
			"to": [13, 2.5, 7.75],
			"rotation": {"angle": 0, "axis": "y", "origin": [12.75, 2.25, 7.5]},
			"faces": {
				"north": {"uv": [1.75, 8, 1.875, 8.125], "texture": "#0"},
				"east": {"uv": [2, 8, 2.125, 8.125], "texture": "#0"},
				"south": {"uv": [2.25, 8, 2.375, 8.125], "texture": "#0"},
				"west": {"uv": [2.5, 8, 2.625, 8.125], "texture": "#0"},
				"up": {"uv": [2.875, 8.125, 2.75, 8], "texture": "#0"},
				"down": {"uv": [3.125, 8, 3, 8.125], "texture": "#0"}
			}
		},
		{
			"name": "main",
			"from": [3.25, 0.75, 5.75],
			"to": [3.75, 2.75, 9.25],
			"rotation": {"angle": 0, "axis": "y", "origin": [3.5, 1.75, 7.5]},
			"faces": {
				"north": {"uv": [7.5, 4, 7.625, 4.5], "texture": "#0"},
				"east": {"uv": [6.5, 3.5, 7.375, 4], "texture": "#0"},
				"south": {"uv": [4.5, 7.5, 4.625, 8], "texture": "#0"},
				"west": {"uv": [6.5, 4, 7.375, 4.5], "texture": "#0"},
				"up": {"uv": [7.375, 8.125, 7.25, 7.25], "texture": "#0"},
				"down": {"uv": [1.375, 7.5, 1.25, 8.375], "texture": "#0"}
			}
		},
		{
			"name": "lid",
			"from": [3.125, 2.45, 5.975],
			"to": [3.875, 2.85, 8.975],
			"rotation": {"angle": 0, "axis": "y", "origin": [3.5, 2.65, 7.475]},
			"faces": {
				"north": {"uv": [7.75, 3.5, 7.9375, 3.625], "texture": "#0"},
				"east": {"uv": [7.5, 2.5, 8.25, 2.625], "texture": "#0"},
				"south": {"uv": [7.75, 3.75, 7.9375, 3.875], "texture": "#0"},
				"west": {"uv": [7.5, 2.75, 8.25, 2.875], "texture": "#0"},
				"up": {"uv": [3.4375, 8, 3.25, 7.25], "texture": "#0"},
				"down": {"uv": [3.6875, 7.25, 3.5, 8], "texture": "#0"}
			}
		},
		{
			"name": "button",
			"from": [3, 2, 7.25],
			"to": [3.5, 2.5, 7.75],
			"rotation": {"angle": 0, "axis": "y", "origin": [3.25, 2.25, 7.5]},
			"faces": {
				"north": {"uv": [7.75, 7.5, 7.875, 7.625], "texture": "#0"},
				"east": {"uv": [7.75, 7.75, 7.875, 7.875], "texture": "#0"},
				"south": {"uv": [8, 0, 8.125, 0.125], "texture": "#0"},
				"west": {"uv": [8, 0.25, 8.125, 0.375], "texture": "#0"},
				"up": {"uv": [8.125, 0.625, 8, 0.5], "texture": "#0"},
				"down": {"uv": [8.125, 0.75, 8, 0.875], "texture": "#0"}
			}
		},
		{
			"name": "main pouch",
			"from": [4.35, 5.25, 4.75],
			"to": [11.6, 8.25, 5.5],
			"rotation": {"angle": 0, "axis": "y", "origin": [8.1, 6.75, 5.125]},
			"faces": {
				"north": {"uv": [6.5, 1, 8.3125, 1.75], "texture": "#0"},
				"east": {"uv": [1.75, 6, 1.9375, 6.75], "texture": "#0"},
				"south": {"uv": [6.5, 1.75, 8.3125, 2.5], "texture": "#0"},
				"west": {"uv": [2, 6, 2.1875, 6.75], "texture": "#0"},
				"up": {"uv": [8.3125, 5.1875, 6.5, 5], "texture": "#0"},
				"down": {"uv": [3.5625, 6.75, 1.75, 6.9375], "texture": "#0"}
			}
		},
		{
			"name": "main pouch button",
			"from": [7.625, 5, 4.6],
			"to": [8.375, 5.5, 5.1],
			"rotation": {"angle": 0, "axis": "y", "origin": [8, 5.25, 4.85]},
			"faces": {
				"north": {"uv": [7.75, 4, 7.9375, 4.125], "texture": "#0"},
				"east": {"uv": [8, 3, 8.125, 3.125], "texture": "#0"},
				"south": {"uv": [7.75, 4.25, 7.9375, 4.375], "texture": "#0"},
				"west": {"uv": [3.25, 8, 3.375, 8.125], "texture": "#0"},
				"up": {"uv": [7.9375, 7.375, 7.75, 7.25], "texture": "#0"},
				"down": {"uv": [7.6875, 7.75, 7.5, 7.875], "texture": "#0"}
			}
		},
		{
			"name": "left handle",
			"from": [6, 8, 8.75],
			"to": [6.5, 9.5, 9.25],
			"rotation": {"angle": 0, "axis": "y", "origin": [6.25, 8.75, 9]},
			"faces": {
				"north": {"uv": [4.75, 7.5, 4.875, 7.875], "texture": "#0"},
				"east": {"uv": [5, 7.5, 5.125, 7.875], "texture": "#0"},
				"south": {"uv": [5.25, 7.5, 5.375, 7.875], "texture": "#0"},
				"west": {"uv": [5.5, 7.5, 5.625, 7.875], "texture": "#0"},
				"up": {"uv": [8.125, 3.375, 8, 3.25], "texture": "#0"},
				"down": {"uv": [3.625, 8, 3.5, 8.125], "texture": "#0"}
			}
		},
		{
			"name": "right handle",
			"from": [9.5, 8, 8.75],
			"to": [10, 9.5, 9.25],
			"rotation": {"angle": 0, "axis": "y", "origin": [9.75, 8.75, 9]},
			"faces": {
				"north": {"uv": [5.75, 7.5, 5.875, 7.875], "texture": "#0"},
				"east": {"uv": [6, 7.5, 6.125, 7.875], "texture": "#0"},
				"south": {"uv": [7.5, 7.25, 7.625, 7.625], "texture": "#0"},
				"west": {"uv": [1.5, 7.75, 1.625, 8.125], "texture": "#0"},
				"up": {"uv": [8.125, 3.625, 8, 3.5], "texture": "#0"},
				"down": {"uv": [8.125, 3.75, 8, 3.875], "texture": "#0"}
			}
		},
		{
			"name": "top handle",
			"from": [6.5, 9, 8.75],
			"to": [9.5, 9.5, 9.25],
			"rotation": {"angle": 0, "axis": "y", "origin": [8, 9.25, 9]},
			"faces": {
				"north": {"uv": [7.25, 6.25, 8.25, 6.375], "texture": "#0"},
				"east": {"uv": [8, 4, 8.125, 4.125], "texture": "#0"},
				"south": {"uv": [7.25, 6.5, 8.25, 6.625], "texture": "#0"},
				"west": {"uv": [8, 4.25, 8.125, 4.375], "texture": "#0"},
				"up": {"uv": [8.25, 6.875, 7.25, 6.75], "texture": "#0"},
				"down": {"uv": [8.25, 7, 7.25, 7.125], "texture": "#0"}
			}
		},
		{
			"name": "strap top base",
			"from": [4.75, 7.25, 10],
			"to": [5.25, 7.75, 10.5],
			"rotation": {"angle": 0, "axis": "y", "origin": [5, 7.5, 10.25]},
			"faces": {
				"north": {"uv": [4.5, 8, 4.625, 8.125], "texture": "#0"},
				"east": {"uv": [4.75, 8, 4.875, 8.125], "texture": "#0"},
				"south": {"uv": [5, 8, 5.125, 8.125], "texture": "#0"},
				"west": {"uv": [5.25, 8, 5.375, 8.125], "texture": "#0"},
				"up": {"uv": [5.625, 8.125, 5.5, 8], "texture": "#0"},
				"down": {"uv": [5.875, 8, 5.75, 8.125], "texture": "#0"}
			}
		},
		{
			"name": "strap bottom base",
			"from": [4.75, 0.25, 10],
			"to": [5.25, 0.75, 10.5],
			"rotation": {"angle": 0, "axis": "y", "origin": [5, 0.5, 10.25]},
			"faces": {
				"north": {"uv": [6, 8, 6.125, 8.125], "texture": "#0"},
				"east": {"uv": [8, 7.25, 8.125, 7.375], "texture": "#0"},
				"south": {"uv": [7.5, 8, 7.625, 8.125], "texture": "#0"},
				"west": {"uv": [8, 7.5, 8.125, 7.625], "texture": "#0"},
				"up": {"uv": [7.875, 8.125, 7.75, 8], "texture": "#0"},
				"down": {"uv": [8.125, 7.75, 8, 7.875], "texture": "#0"}
			}
		},
		{
			"name": "strap body",
			"from": [4.75, 0.25, 10.5],
			"to": [5.25, 7.75, 11],
			"rotation": {"angle": 0, "axis": "y", "origin": [5, 4, 10.75]},
			"faces": {
				"north": {"uv": [4, 6.75, 4.125, 8.625], "texture": "#0"},
				"east": {"uv": [4.25, 6.75, 4.375, 8.625], "texture": "#0"},
				"south": {"uv": [7, 6.25, 7.125, 8.125], "texture": "#0"},
				"west": {"uv": [0, 7.25, 0.125, 9.125], "texture": "#0"},
				"up": {"uv": [8.125, 8.125, 8, 8], "texture": "#0"},
				"down": {"uv": [8.375, 0, 8.25, 0.125], "texture": "#0"}
			}
		},
		{
			"name": "strap top base",
			"from": [10.75, 7.25, 10],
			"to": [11.25, 7.75, 10.5],
			"rotation": {"angle": 0, "axis": "y", "origin": [11, 7.5, 10.25]},
			"faces": {
				"north": {"uv": [8.25, 0.25, 8.375, 0.375], "texture": "#0"},
				"east": {"uv": [8.25, 0.5, 8.375, 0.625], "texture": "#0"},
				"south": {"uv": [8.25, 0.75, 8.375, 0.875], "texture": "#0"},
				"west": {"uv": [1.5, 8.25, 1.625, 8.375], "texture": "#0"},
				"up": {"uv": [1.875, 8.375, 1.75, 8.25], "texture": "#0"},
				"down": {"uv": [2.125, 8.25, 2, 8.375], "texture": "#0"}
			}
		},
		{
			"name": "strap bottom base",
			"from": [10.75, 0.25, 10],
			"to": [11.25, 0.75, 10.5],
			"rotation": {"angle": 0, "axis": "y", "origin": [11, 0.5, 10.25]},
			"faces": {
				"north": {"uv": [2.25, 8.25, 2.375, 8.375], "texture": "#0"},
				"east": {"uv": [2.5, 8.25, 2.625, 8.375], "texture": "#0"},
				"south": {"uv": [8.25, 2.5, 8.375, 2.625], "texture": "#0"},
				"west": {"uv": [2.75, 8.25, 2.875, 8.375], "texture": "#0"},
				"up": {"uv": [8.375, 2.875, 8.25, 2.75], "texture": "#0"},
				"down": {"uv": [3.125, 8.25, 3, 8.375], "texture": "#0"}
			}
		},
		{
			"name": "strap body",
			"from": [10.75, 0.25, 10.5],
			"to": [11.25, 7.75, 11],
			"rotation": {"angle": 0, "axis": "y", "origin": [11, 4, 10.75]},
			"faces": {
				"north": {"uv": [0.25, 7.25, 0.375, 9.125], "texture": "#0"},
				"east": {"uv": [0.5, 7.25, 0.625, 9.125], "texture": "#0"},
				"south": {"uv": [0.75, 7.25, 0.875, 9.125], "texture": "#0"},
				"west": {"uv": [1, 7.25, 1.125, 9.125], "texture": "#0"},
				"up": {"uv": [8.375, 3.125, 8.25, 3], "texture": "#0"},
				"down": {"uv": [3.375, 8.25, 3.25, 8.375], "texture": "#0"}
			}
		}
	],
	"display": {
		"thirdperson_righthand": {
			"rotation": [90, 0, 0],
			"translation": [0, 0, -1]
		},
		"thirdperson_lefthand": {
			"rotation": [90, 0, 0],
			"translation": [0, 0, -1]
		},
		"firstperson_righthand": {
			"rotation": [0, 152, 0],
			"translation": [0, 7.25, 0]
		},
		"firstperson_lefthand": {
			"rotation": [0, 152, 0],
			"translation": [0, 7.25, 0]
		},
		"ground": {
			"rotation": [0, -180, 0],
			"translation": [0, 2.75, 0],
			"scale": [0.75, 0.75, 0.75]
		},
		"gui": {
			"rotation": [0, 180, 0],
			"translation": [0, 5, 0],
			"scale": [1.5, 1.5, 1.5]
		},
		"fixed": {
			"translation": [0, 4, 0]
		}
	},
	"groups": [
		{
			"name": "body",
			"origin": [8, 8, 8],
			"color": 0,
			"children": [0, 1, 2]
		},
		{
			"name": "pouches",
			"origin": [8, 8, 8],
			"color": 0,
			"children": [
				{
					"name": "front",
					"origin": [8, 8, 8],
					"color": 0,
					"children": [3, 4, 5]
				},
				{
					"name": "right",
					"origin": [8, 8, 8],
					"color": 0,
					"children": [6, 7, 8]
				},
				{
					"name": "left",
					"origin": [8, 8, 8],
					"color": 0,
					"children": [9, 10, 11]
				},
				{
					"name": "main",
					"origin": [8, 8, 8],
					"color": 0,
					"children": [12, 13]
				}
			]
		},
		{
			"name": "handle",
			"origin": [8, 8, 8],
			"color": 0,
			"children": [14, 15, 16]
		},
		{
			"name": "straps",
			"origin": [8, 8, 8],
			"color": 0,
			"children": [
				{
					"name": "left",
					"origin": [8, 8, 8],
					"color": 0,
					"children": [17, 18, 19]
				},
				{
					"name": "right",
					"origin": [8, 8, 8],
					"color": 0,
					"children": [20, 21, 22]
				}
			]
		}
	]
}