{
    "smite.proc": {
        "sounds": [
            {
                "name": "marwynn:player/smite_proc",
                "volume": 1,
                "weight": 1
            }
        ],
        "subtitle": "subtitles.smite.proc",
        "category": "player"
    }
}