{
    "type": "minecraft:crafting_shaped",
    "pattern": [
        "LLL",
        "LCL",
        "LLL"
    ],
    "key": {
        "L": "minecraft:leather",
        "C": "minecraft:chest"
    },
    "result": {
        "id": "minecraft:stick",
        "components": {
            "minecraft:container": [],
            "minecraft:custom_data": {
                "backpack":{
                    "is_backpack": true,
                    "upgrade_level": 1
                }
            },
            "minecraft:item_model": "marwynn:backpack/backpack_brown",
            "minecraft:item_name": "{\"text\": \"Backpack\", \"italics\": false}",
            "minecraft:lore": [
                "\"Lvl. I - Contains 9 item slots\""
            ],
            "minecraft:rarity": "uncommon",
            "minecraft:max_stack_size": 1
        }
    }
}
