{
    "display": {
        "icon": {
            "id": "minecraft:stone",
            "count": 1,
            "components": {
                "minecraft:item_model": "marwynn:heartsteel/heartsteel"
            }
        },
        "title": {
            "type": "translatable",
            "translate": "advancement.heartsteel.fifty_heartsteel.title"
        },
        "description": {
            "type": "translatable",
            "translate": "advancement.heartsteel.fifty_heartsteel.description"
        },
        "frame": "challenge",
        "show_toast": true,
        "announce_to_chat": true
    },
    "parent": "marwynn:twentyfive_heartsteel",
    "criteria": {
        "requirement": {
            "trigger": "minecraft:impossible"
        }
    }
}
