{
    "parent": "minecraft:block/stone",
    "textures": {
        "layer0": "item/stone"
    },
    "overrides": [
        {
            "predicate": {
                "custom_model_data": 329105
            },
            "model": "marwynn:item/smite/scuttle"
        }
    ]
}