{
    "display": {
        "icon": {
            "id": "minecraft:raw_gold",
            "components": {
                "minecraft:item_model": "marwynn:smite/primal_smite"
            }
        },
        "title": {
            "type": "translatable",
            "translate": "advancement.smite.first_upgrade_stage_2.title"
        },
        "description": {
            "type": "translatable",
            "translate": "advancement.smite.first_upgrade_stage_2.description"
        },
        "frame": "challenge",
        "show_toast": true
    },
    "parent": "marwynn:unleashed_smite_first_upgrade",
    "criteria": {
        "requirement": {
            "trigger": "minecraft:recipe_unlocked",
            "conditions": {
                "recipe": "marwynn:primal_smite"
            }
        }
    }
}
